[
	{
		"x": 1.5,
		"y": 2,
		"z": 3.5,
		"yaw": 4,
		"pitch": 5,
		"world": "hg"
	},
	{
		"x": 4.5,
		"y": 2,
		"z": 6.5,
		"yaw": 4,
		"pitch": 5,
		"world": "hg"
	},
	{
		"x": 7.5,
		"y": 2,
		"z": 9.5,
		"yaw": 4,
		"pitch": 5,
		"world": "hg"
	}
]
